…
## Filter blast hits

``` r

## evalue <= 1e-5

blast_out_tbl %>% phyloR::filter_blast_hits(evalue = 1e-5)
#> # A tibble: 545 x 13
#>    query_acc_ver subject_acc_ver identity alignment_length mismatches gap_opens
#>    <chr>         <chr>              <dbl>            <dbl>      <dbl>     <dbl>
#>  1 KAE8371401.1  KAE8371401.1       100                253          0         0
#>  2 KAE8371401.1  XP_031924425.1      71.3              247         71         0
#>  3 KAE8371401.1  XP_031940570.1      66.4              247         83         0
#>  4 KAE8371401.1  KAB8261773.1        66.0              247         84         0
#>  5 KAE8371401.1  XP_022392557.1      64.4              247         69         1
#>  6 KAE8371401.1  OQD81666.1          61.7              248         95         0
#>  7 KAE8371401.1  GES63448.1          39.3              229        135         3
#>  8 KAE8371401.1  XP_001214927.1      39.3              229        135         3
#>  9 KAE8371401.1  OQD86157.1          38.6              228        132         3
#> 10 KAE8371401.1  XP_002375911.1      39.1              230        129         5
#> # … with 535 more rows, and 7 more variables: q_start <dbl>, q_end <dbl>,
#> #   s_start <dbl>, s_end <dbl>, evalue <dbl>, bit_score <dbl>, positives <dbl>
…
##  Filter blast hits : query coverage >= 90

blast_out_tbl %>% phyloR::filter_blast_hits(query_cov = 90, query_length = 253)
#> # A tibble: 89 x 13
#>    query_acc_ver subject_acc_ver identity alignment_length mismatches gap_opens
#>    <chr>         <chr>              <dbl>            <dbl>      <dbl>     <dbl>
#>  1 KAE8371401.1  KAE8371401.1       100                253          0         0
#>  2 KAE8371401.1  XP_031924425.1      71.3              247         71         0
#>  3 KAE8371401.1  XP_031940570.1      66.4              247         83         0
#>  4 KAE8371401.1  KAB8261773.1        66.0              247         84         0
#>  5 KAE8371401.1  XP_022392557.1      64.4              247         69         1
#>  6 KAE8371401.1  OQD81666.1          61.7              248         95         0
#>  7 KAE8371401.1  GES63448.1          39.3              229        135         3
#>  8 KAE8371401.1  XP_001214927.1      39.3              229        135         3
#>  9 KAE8371401.1  XP_002375911.1      39.1              230        129         5
#> 10 KAE8371401.1  OQD72420.1          40                230        127         5
#> # … with 79 more rows, and 7 more variables: q_start <dbl>, q_end <dbl>,
#> #   s_start <dbl>, s_end <dbl>, evalue <dbl>, bit_score <dbl>, positives <dbl>
…
## Remove redundancy from blast tabular ouput

``` r
blast_out_tbl %>% phyloR::remove_redundant_hits()
#> # A tibble: 716 x 13
#> # Groups:   subject_acc_ver [716]
#>    query_acc_ver subject_acc_ver identity alignment_length mismatches gap_opens
#>    <chr>         <chr>              <dbl>            <dbl>      <dbl>     <dbl>
#>  1 KAE8371401.1  1FN8_A              31.6              209        127         6
#>  2 KAE8371401.1  1GDU_A              31.9              210        127         6
#>  3 KAE8371401.1  1PPZ_A              31.9              210        127         6
#>  4 KAE8371401.1  AAQ04074.1          27.5              218        135         9
#>  5 KAE8371401.1  AAR91718.1          30.8              117         73         2
#>  6 KAE8371401.1  AAR91719.1          28.7              157         94         6
#>  7 KAE8371401.1  AAW31593.1          27.2              228        147         6
#>  8 KAE8371401.1  ADK37838.1          29.5              227        136         9
#>  9 KAE8371401.1  ADY16698.1          35.5              242        151         4
#> 10 KAE8371401.1  AER28315.1          30.5              236        148         5
#> # … with 706 more rows, and 7 more variables: q_start <dbl>, q_end <dbl>,
#> #   s_start <dbl>, s_end <dbl>, evalue <dbl>, bit_score <dbl>, positives <dbl>
```
…
